[
{ "directory": "/home/torbjorn/repos/hangprinter-flex-compensation", "file": "flex.cpp", "output": "/tmp/flex-b7b85d.o", "arguments": ["/usr/lib/llvm-11/bin/clang", "-xc++", "flex.cpp", "--driver-mode=g++", "-std=c++2a", "-I", ".", "-o", "plotstuff", "--target=x86_64-pc-linux-gnu"]},
{ "directory": "/home/torbjorn/repos/hangprinter-flex-compensation", "file": "plotstuff.cpp", "output": "/tmp/plotstuff-827f6b.o", "arguments": ["/usr/lib/llvm-11/bin/clang", "-xc++", "plotstuff.cpp", "--driver-mode=g++", "-std=c++2a", "-I", ".", "-o", "plotstuff", "--target=x86_64-pc-linux-gnu"]},
{ "directory": "/home/torbjorn/repos/hangprinter-flex-compensation", "file": "flex.cpp", "output": "/tmp/flex-dd226a.o", "arguments": ["/usr/lib/llvm-11/bin/clang", "-xc++", "flex.cpp", "--driver-mode=g++", "-std=c++2a", "-I", ".", "-o", "test", "--target=x86_64-pc-linux-gnu"]},
{ "directory": "/home/torbjorn/repos/hangprinter-flex-compensation", "file": "test.cpp", "output": "/tmp/test-2da535.o", "arguments": ["/usr/lib/llvm-11/bin/clang", "-xc++", "test.cpp", "--driver-mode=g++", "-std=c++2a", "-I", ".", "-o", "test", "--target=x86_64-pc-linux-gnu"]}
]
